Übungsblatt #2
…
# e
# csv files geeignet sind um große Datenmenge zu organisieren und auch lassen sich einfacher in eine Tabellenkalkulation oder eine andere Speicherdatenbank importieren

Aufgabe 3

# a
oktoberfest %>%
  group_by(jahr, dauer)

## # A tibble: 35 × 7
## # Groups:   jahr, dauer [35]
##     jahr dauer besucher_gesamt besucher_tag bier_konsum bier_preis jahr_mit_la…¹
##    <dbl> <dbl>           <dbl>        <dbl>       <dbl>      <dbl> <chr>        
##  1  1985    16             7.1          444       54541       3.2  nein         
##  2  1986    16             6.7          419       53807       3.3  nein         
##  3  1987    16             6.5          406       51842       3.37 ja           
##  4  1988    16             5.7          356       50951       3.45 nein         
##  5  1989    16             6.2          388       51241       3.6  nein         
##  6  1990    16             6.7          419       54300       3.77 ja           
##  7  1991    16             6.4          400       54686       4.21 nein         
##  8  1992    16             5.9          369       48888       4.42 nein         
##  9  1993    16             6.5          406       51933       4.71 ja           
## 10  1994    16             6.6          413       52108       4.89 nein         
## # … with 25 more rows, and abbreviated variable name
## #   ¹​jahr_mit_landwirtschaftsfest
…
